-- MySQL dump 10.13  Distrib 5.5.38, for debian-linux-gnu (x86_64)
--
-- Host: localhost    Database: rpsmarf_1429106822
-- ------------------------------------------------------
-- Server version	5.5.38-0ubuntu0.14.04.1

/*!40101 SET @OLD_CHARACTER_SET_CLIENT=@@CHARACTER_SET_CLIENT */;
/*!40101 SET @OLD_CHARACTER_SET_RESULTS=@@CHARACTER_SET_RESULTS */;
/*!40101 SET @OLD_COLLATION_CONNECTION=@@COLLATION_CONNECTION */;
/*!40101 SET NAMES utf8 */;
/*!40103 SET @OLD_TIME_ZONE=@@TIME_ZONE */;
/*!40103 SET TIME_ZONE='+00:00' */;
/*!40014 SET @OLD_UNIQUE_CHECKS=@@UNIQUE_CHECKS, UNIQUE_CHECKS=0 */;
/*!40014 SET @OLD_FOREIGN_KEY_CHECKS=@@FOREIGN_KEY_CHECKS, FOREIGN_KEY_CHECKS=0 */;
/*!40101 SET @OLD_SQL_MODE=@@SQL_MODE, SQL_MODE='NO_AUTO_VALUE_ON_ZERO' */;
/*!40111 SET @OLD_SQL_NOTES=@@SQL_NOTES, SQL_NOTES=0 */;

--
-- Table structure for table `actstream_action`
--

DROP TABLE IF EXISTS `actstream_action`;
/*!40101 SET @saved_cs_client     = @@character_set_client */;
/*!40101 SET character_set_client = utf8 */;
CREATE TABLE `actstream_action` (
  `id` int(11) NOT NULL AUTO_INCREMENT,
  `actor_content_type_id` int(11) NOT NULL,
  `actor_object_id` varchar(255) NOT NULL,
  `verb` varchar(255) NOT NULL,
  `description` longtext,
  `target_content_type_id` int(11) DEFAULT NULL,
  `target_object_id` varchar(255) DEFAULT NULL,
  `action_object_content_type_id` int(11) DEFAULT NULL,
  `action_object_object_id` varchar(255) DEFAULT NULL,
  `timestamp` datetime NOT NULL,
  `public` tinyint(1) NOT NULL,
  `data` text,
  PRIMARY KEY (`id`),
  KEY `actstream_action_3df58830` (`actor_content_type_id`),
  KEY `actstream_action_276d0c93` (`target_content_type_id`),
  KEY `actstream_action_f6b51263` (`action_object_content_type_id`),
  CONSTRAINT `action_object_content_type_id_refs_id_357b994e` FOREIGN KEY (`action_object_content_type_id`) REFERENCES `django_content_type` (`id`),
  CONSTRAINT `actor_content_type_id_refs_id_357b994e` FOREIGN KEY (`actor_content_type_id`) REFERENCES `django_content_type` (`id`),
  CONSTRAINT `target_content_type_id_refs_id_357b994e` FOREIGN KEY (`target_content_type_id`) REFERENCES `django_content_type` (`id`)
) ENGINE=InnoDB AUTO_INCREMENT=8 DEFAULT CHARSET=latin1;
/*!40101 SET character_set_client = @saved_cs_client */;

--
-- Dumping data for table `actstream_action`
--

LOCK TABLES `actstream_action` WRITE;
/*!40000 ALTER TABLE `actstream_action` DISABLE KEYS */;
INSERT INTO `actstream_action` VALUES (1,4,'1','login',NULL,NULL,NULL,NULL,NULL,'2015-04-15 14:07:15',1,NULL),(2,4,'1','run',NULL,19,'3',NULL,NULL,'2015-04-15 14:07:16',1,NULL),(3,4,'1','run_start',NULL,10,'1',NULL,NULL,'2015-04-15 14:07:16',1,'{\"task_id\": 2}'),(4,4,'1','run_end',NULL,10,'1',NULL,NULL,'2015-04-15 14:07:16',1,'{\"status\": \"success\", \"task_id\": 2}'),(5,4,'1','upload',NULL,10,'1',NULL,NULL,'2015-04-15 14:07:17',1,NULL),(6,4,'1','download',NULL,10,'1',NULL,NULL,'2015-04-15 14:07:17',1,NULL),(7,4,'1','logout',NULL,NULL,NULL,NULL,NULL,'2015-04-15 14:07:17',1,NULL);
/*!40000 ALTER TABLE `actstream_action` ENABLE KEYS */;
UNLOCK TABLES;
/*!40103 SET TIME_ZONE=@OLD_TIME_ZONE */;

/*!40101 SET SQL_MODE=@OLD_SQL_MODE */;
/*!40014 SET FOREIGN_KEY_CHECKS=@OLD_FOREIGN_KEY_CHECKS */;
/*!40014 SET UNIQUE_CHECKS=@OLD_UNIQUE_CHECKS */;
/*!40101 SET CHARACTER_SET_CLIENT=@OLD_CHARACTER_SET_CLIENT */;
/*!40101 SET CHARACTER_SET_RESULTS=@OLD_CHARACTER_SET_RESULTS */;
/*!40101 SET COLLATION_CONNECTION=@OLD_COLLATION_CONNECTION */;
/*!40111 SET SQL_NOTES=@OLD_SQL_NOTES */;

-- Dump completed on 2015-04-15 14:09:59
